{
  "project_info": {
    "project_number": "732001276082",
    "project_id": "artline-mobile-app",
    "storage_bucket": "artline-mobile-app.appspot.com"
  },
  "client": [
    {
      "client_info": {
        "mobilesdk_app_id": "1:732001276082:android:d08ba70b11a64c354039ab",
        "android_client_info": {
          "package_name": "com.goodnews.artline"
        }
      },
      "oauth_client": [
        {
          "client_id": "732001276082-ivcecsudjbm1504f8jlk3tfa3h1hkjr4.apps.googleusercontent.com",
          "client_type": 3
        }
      ],
      "api_key": [
        {
          "current_key": "AIzaSyCK_5TLbbw-jMV7Iec-J7ssCAJC4aM1iN8"
        }
      ],
      "services": {
        "appinvite_service": {
          "other_platform_oauth_client": [
            {
              "client_id": "732001276082-ivcecsudjbm1504f8jlk3tfa3h1hkjr4.apps.googleusercontent.com",
              "client_type": 3
            }
          ]
        }
      }
    }
  ],
  "configuration_version": "1"
}